{
  "name": "Cidade",
  "plural": "cidades",
  "base": "FwBaseModel",
  "idInjection": true,
  "options": {
    "validateUpsert": true
  },
  "properties": {
    "nome": {
      "type": "string",
      "required": true
    }
  },
  "validations": [],
  "relations": {
    "estado_id": {
      "type": "belongsTo",
      "model": "Estado",
      "foreignKey": "estado_id"
    }
  },
  "acls": [
    {
      "accessType": "*",
      "principalType": "ROLE",
      "principalId": "$everyone",
      "permission": "DENY"
    },
    {
      "accessType": "READ",
      "principalType": "ROLE",
      "principalId": "$authenticated",
      "permission": "ALLOW"
    }
  ],
  "methods": {}
}
