{
  "name": "IndicadorTabelaResultado",
  "plural": "indicador-tabelas-resultado",
  "base": "FwBaseModel",
  "idInjection": true,
  "options": {
    "validateUpsert": true
  },
  "properties": {
    "indice_min": {
      "type": "number",
      "required": true,
      "postgresql": {
        "dataType": "double precision"
      }
    },
    "indice_max": {
      "type": "number",
      "required": true,
      "postgresql": {
        "dataType": "double precision"
      }
    },
    "resultado": {
      "type": "string",
      "required": true
    },
    "cor": {
      "type": "string",
      "required": false
    }
  },
  "validations": [],
  "relations": {},
  "acls": [
    {
      "accessType": "*",
      "principalType": "ROLE",
      "principalId": "$everyone",
      "permission": "DENY"
    },
    {
      "accessType": "*",
      "principalType": "ROLE",
      "principalId": "admin",
      "permission": "ALLOW"
    },
    {
      "accessType": "READ",
      "principalType": "ROLE",
      "principalId": "$authenticated",
      "permission": "ALLOW"
    }
  ],
  "methods": {}
}
