{
  "name": "Pessoa",
  "base": "FwBaseModel",
  "options": {
    "validateUpsert": true
  },
  "properties": {
    "nome": {
      "type": "string",
      "required": true
    },
    "email": {
      "type": "string",
      "required": false
    },
    "rg": {
      "type": "string",
      "required": false
    },
    "orgao_emissor": {
      "type": "string",
      "required": false
    },
    "cpf": {
      "type": "string",
      "required": false
    },
    "cnpj": {
      "type": "string",
      "required": false
    }
  },
  "validations": [],
  "relations": {
    "enderecos": {
      "type": "hasMany",
      "model": "PessoaEndereco",
      "foreignKey": "pes_id"
    },
    "telefones": {
      "type": "hasMany",
      "model": "Telefone",
      "foreignKey": "pes_id"
    }
  },
  "acls": [
    {
      "accessType": "*",
      "principalType": "ROLE",
      "principalId": "admin",
      "permission": "ALLOW"
    }
  ],
  "methods": {}
}
