{
  "name": "Telefone",
  "plural": "telefones",
  "base": "FwBaseModel",
  "idInjection": true,
  "options": {
    "validateUpsert": true
  },
  "properties": {
    "numero": {
      "type": "string",
      "required": true
    }
  },
  "validations": [],
  "relations": {
    "tipo_telefone": {
      "type": "belongsTo",
      "model": "TipodeTelefone",
      "foreignKey": "ttel_id"
    }
  },
  "acls": [
    {
      "accessType": "*",
      "principalType": "ROLE",
      "principalId": "$everyone",
      "permission": "DENY"
    },
    {
      "accessType": "*",
      "principalType": "ROLE",
      "principalId": "admin",
      "permission": "ALLOW"
    },
    {
      "accessType": "READ",
      "principalType": "ROLE",
      "principalId": "$authenticated",
      "permission": "ALLOW"
    }
  ],
  "methods": {}
}
