{
  "_meta": {
    "sources": [
      "loopback/common/models",
      "loopback/server/models",
      "../common/models",
      "./models"
    ],
    "mixins": [
      "loopback/common/mixins",
      "../node_modules/loopback-ds-timestamp-mixin",
      "../node_modules/loopback-lets-soft-delete-mixin/lib",
      "../node_modules/loopback-lets-base-model-mixin/lib",
      "../node_modules/loopback-lets-company-scope-mixin/lib",
      "../common/mixins",
      "./mixins"
    ]
  },
  "Address": {
    "dataSource": "transient",
    "public": false
  },
  "geoLocation": {
    "dataSource": "transient",
    "public": false
  },
  "Storage": {
    "dataSource": "file",
    "public": true
  },
  "Email": {
    "dataSource": "sendgrid",
    "public": false
  },
  "Config": {
    "dataSource": "postgres",
    "public": true
  },
  "ACL": {
    "dataSource": "postgres",
    "public": false
  },
  "RoleMapping": {
    "dataSource": "postgres",
    "public": false
  },
  "Usuario": {
    "dataSource": "postgres",
    "public": true
  },
  "AccessToken": {
    "dataSource": "postgres",
    "public": false
  },
  "Role": {
    "dataSource": "postgres",
    "public": false
  },
  "UserIdentity": {
    "dataSource": "postgres",
    "public": false
  },
  "UserCredential": {
    "dataSource": "postgres",
    "public": false
  },
  "Programa": {
    "dataSource": "postgres",
    "public": true
  },
  "Especialidade": {
    "dataSource": "postgres",
    "public": true
  },
  "Convenio": {
    "dataSource": "postgres",
    "public": true
  },
  "Doenca": {
    "dataSource": "postgres",
    "public": true
  },
  "CategoriaDoenca": {
    "dataSource": "postgres",
    "public": true
  },
  "Feriado": {
    "dataSource": "postgres",
    "public": true
  },
  "TipoFeriado": {
    "dataSource": "postgres",
    "public": true
  },
  "UnidadeMedida": {
    "dataSource": "postgres",
    "public": true
  },
  "Banco": {
    "dataSource": "postgres",
    "public": true
  },
  "PlanodeSaude": {
    "dataSource": "postgres",
    "public": true
  },
  "EstadoCivil": {
    "dataSource": "postgres",
    "public": true
  },
  "TipodeTelefone": {
    "dataSource": "postgres",
    "public": true
  },
  "TipoSanguineo": {
    "dataSource": "postgres",
    "public": true
  },
  "Pais": {
    "dataSource": "postgres",
    "public": true
  },
  "Estado": {
    "dataSource": "postgres",
    "public": true
  },
  "Cidade": {
    "dataSource": "postgres",
    "public": true
  },
  "Posologia": {
    "dataSource": "postgres",
    "public": true
  },
  "Via": {
    "dataSource": "postgres",
    "public": true
  },
  "Duracao": {
    "dataSource": "postgres",
    "public": true
  },
  "Frequencia": {
    "dataSource": "postgres",
    "public": true
  },
  "PerfilUsuario": {
    "dataSource": "postgres",
    "public": true
  },
  "Paciente": {
    "dataSource": "postgres",
    "public": true
  },
  "PacienteEndereco": {
    "dataSource": "postgres",
    "public": false
  },
  "PacienteTelefone": {
    "dataSource": "postgres",
    "public": false
  },
  "PacientePrograma": {
    "dataSource": "postgres",
    "public": true
  },
  "PacientePlanoSaude": {
    "dataSource": "postgres",
    "public": true
  },
  "PacienteDocumentoMedico": {
    "dataSource": "postgres",
    "public": true
  },
  "PacienteCid": {
    "dataSource": "postgres",
    "public": true
  },
  "PacienteExame": {
    "dataSource": "postgres",
    "public": true
  },
  "Conveniado": {
    "dataSource": "postgres",
    "public": true
  },
  "ConveniadoEndereco": {
    "dataSource": "postgres",
    "public": true
  },
  "ConveniadoTelefone": {
    "dataSource": "postgres",
    "public": false
  },
  "Prestador": {
    "dataSource": "postgres",
    "public": true
  },
  "PrestadorEndereco": {
    "dataSource": "postgres",
    "public": false
  },
  "PrestadorTelefone": {
    "dataSource": "postgres",
    "public": false
  },
  "PrestadorEspecialidade": {
    "dataSource": "postgres",
    "public": true
  },
  "PrestadorBanco": {
    "dataSource": "postgres",
    "public": true
  },
  "ConvenioPrograma": {
    "dataSource": "postgres",
    "public": true
  },
  "ConveniadoContato": {
    "dataSource": "postgres",
    "public": true
  },
  "Empresa": {
    "dataSource": "postgres",
    "public": true
  },
  "EmpresaTelefone": {
    "dataSource": "postgres",
    "public": true
  },
  "EmpresaEndereco": {
    "dataSource": "postgres",
    "public": true
  },
  "Menu": {
    "dataSource": "postgres",
    "public": true
  },
  "PerfilControleAcesso": {
    "dataSource": "postgres",
    "public": true
  },
  "Indicador": {
    "dataSource": "postgres",
    "public": true
  },
  "IndicadorTabelaResultado": {
    "dataSource": "postgres",
    "public": true
  },
  "IndicadorCid": {
    "dataSource": "postgres",
    "public": true
  },
  "Formulario": {
    "dataSource": "postgres",
    "public": true
  },
  "FormularioIndicador": {
    "dataSource": "postgres",
    "public": false
  },
  "FormularioEspecialidade": {
    "dataSource": "postgres",
    "public": false
  },
  "Conselho": {
    "dataSource": "postgres",
    "public": true
  },
  "IndicadorTipo": {
    "dataSource": "postgres",
    "public": true
  },
  "Prontuario": {
    "dataSource": "postgres",
    "public": true,
    "table": "Paciente"
  },
  "TipoAtendimento": {
    "dataSource": "postgres",
    "public": true
  },
  "StatusAtendimento": {
    "dataSource": "postgres",
    "public": true
  },
  "Atendimento": {
    "dataSource": "postgres",
    "public": true
  },
  "AtendimentoReceituario": {
    "dataSource": "postgres",
    "public": true
  },
  "AtendimentoReceituarioItem": {
    "dataSource": "postgres",
    "public": true
  },
  "AtendimentoEncaminhamento": {
    "dataSource": "postgres",
    "public": true
  },
  "AtendimentoFormularioResposta": {
    "dataSource": "postgres",
    "public": false
  },
  "PreReceita": {
    "dataSource": "postgres",
    "public": true
  },
  "PreReceitaItem": {
    "dataSource": "postgres",
    "public": true
  },
  "DocumentoMedico": {
    "dataSource": "postgres",
    "public": true
  },
  "DocumentoMedicoTipo": {
    "dataSource": "postgres",
    "public": true
  },
  "TipoMedicamento": {
    "dataSource": "postgres",
    "public": true
  },
  "ProdutoMedicamento": {
    "dataSource": "postgres",
    "public": true
  },
  "TarjaMedicamento": {
    "dataSource": "postgres",
    "public": true
  },
  "ClasseTerapeuticaMedicamento": {
    "dataSource": "postgres",
    "public": true
  },
  "ApresentacaoMedicamento": {
    "dataSource": "postgres",
    "public": true
  },
  "LaboratorioMedicamento": {
    "dataSource": "postgres",
    "public": true
  },
  "Medicamento": {
    "dataSource": "postgres",
    "public": true
  },
  "PrincipioAtivoMedicamento": {
    "dataSource": "postgres",
    "public": true
  },
  "TipoEvento": {
    "dataSource": "postgres",
    "public": true
  },
  "StatusEvento": {
    "dataSource": "postgres",
    "public": true
  },
  "Evento": {
    "dataSource": "postgres",
    "public": true
  },
  "PacienteExameDigital": {
    "dataSource": "postgres",
    "public": true
  }
}
